tb/PipelineShifter_sim.vcd
$version Generated by VerilatedVcd $end
$timescale 1ps $end
 $scope module $rootio $end
 $upscope $end
 $scope module tb_pipelinedCircularShifter $end
  $var wire 32 '" MAXZ [31:0] $end
  $var wire 32 (" CLK_PERIOD [31:0] $end
  $var wire 32 )" PIPE1_STAGES_PER_CYCLE [31:0] $end
  $var wire 1 &" clk $end
  $var wire 1 # rst_n $end
  $var wire 81 $ in_data [80:0] $end
  $var wire 7 ' shift_val [6:0] $end
  $var wire 81 m out2 [80:0] $end
  $var wire 81 p out1 [80:0] $end
  $var wire 81 ( patterns[0] [80:0] $end
  $var wire 81 + patterns[1] [80:0] $end
  $var wire 81 . patterns[2] [80:0] $end
  $var wire 81 1 patterns[3] [80:0] $end
  $var wire 81 4 patterns[4] [80:0] $end
  $var wire 81 7 patterns[5] [80:0] $end
  $var wire 32 : latency [31:0] $end
  $var wire 32 ; total_tests [31:0] $end
  $var wire 32 < total_fail [31:0] $end
  $var wire 32 = p [31:0] $end
  $var wire 32 > s [31:0] $end
  $var wire 81 ? expected [80:0] $end
  $scope module dut1 $end
   $var wire 32 '" MAXZ [31:0] $end
   $var wire 32 )" PIPE_STAGES_PER_CYCLE [31:0] $end
   $var wire 1 &" CLK $end
   $var wire 1 # rst_n $end
   $var wire 81 $ in_data [80:0] $end
   $var wire 7 ' shift_val [6:0] $end
   $var wire 81 p out_data [80:0] $end
   $var wire 32 *" NumMuxlevels [31:0] $end
   $var wire 32 )" StagesPerPipelineLevel [31:0] $end
   $var wire 32 *" NumStages [31:0] $end
   $var wire 81 s stage_regs[0] [80:0] $end
   $var wire 81 v stage_regs[1] [80:0] $end
   $var wire 81 y stage_regs[2] [80:0] $end
   $var wire 81 | stage_regs[3] [80:0] $end
   $var wire 81 !! stage_regs[4] [80:0] $end
   $var wire 81 $! stage_regs[5] [80:0] $end
   $var wire 81 '! stage_regs[6] [80:0] $end
   $var wire 81 *! stage_regs[7] [80:0] $end
   $scope module PipelineStage[0] $end
    $var wire 81 -! stage_wires[0] [80:0] $end
    $var wire 81 0! stage_wires[1] [80:0] $end
    $scope module RotStagePerPipe[0] $end
     $var wire 32 +" idx [31:0] $end
     $var wire 1 ," realityCheck $end
     $scope module rot_inst $end
      $var wire 32 '" MAXZ [31:0] $end
      $var wire 32 +" SHIFT [31:0] $end
      $var wire 1 ," DOES_EXIST $end
      $var wire 81 $ i_data [80:0] $end
      $var wire 1 B en_en $end
      $var wire 81 3! o_data [80:0] $end
      $var wire 32 +" clamped_shift [31:0] $end
      $var wire 32 )" sh_val_mod [31:0] $end
      $var wire 1 -" o_o $end
     $upscope $end
    $upscope $end
   $upscope $end
   $scope module PipelineStage[1] $end
    $var wire 81 6! stage_wires[0] [80:0] $end
    $var wire 81 9! stage_wires[1] [80:0] $end
    $scope module RotStagePerPipe[0] $end
     $var wire 32 )" idx [31:0] $end
     $var wire 1 ," realityCheck $end
     $scope module rot_inst $end
      $var wire 32 '" MAXZ [31:0] $end
      $var wire 32 )" SHIFT [31:0] $end
      $var wire 1 ," DOES_EXIST $end
      $var wire 81 <! i_data [80:0] $end
      $var wire 1 C en_en $end
      $var wire 81 I o_data [80:0] $end
      $var wire 32 )" clamped_shift [31:0] $end
      $var wire 32 ." sh_val_mod [31:0] $end
      $var wire 1 -" o_o $end
     $upscope $end
    $upscope $end
   $upscope $end
   $scope module PipelineStage[2] $end
    $var wire 81 ?! stage_wires[0] [80:0] $end
    $var wire 81 B! stage_wires[1] [80:0] $end
    $scope module RotStagePerPipe[0] $end
     $var wire 32 ." idx [31:0] $end
     $var wire 1 ," realityCheck $end
     $scope module rot_inst $end
      $var wire 32 '" MAXZ [31:0] $end
      $var wire 32 ." SHIFT [31:0] $end
      $var wire 1 ," DOES_EXIST $end
      $var wire 81 E! i_data [80:0] $end
      $var wire 1 D en_en $end
      $var wire 81 L o_data [80:0] $end
      $var wire 32 ." clamped_shift [31:0] $end
      $var wire 32 /" sh_val_mod [31:0] $end
      $var wire 1 -" o_o $end
     $upscope $end
    $upscope $end
   $upscope $end
   $scope module PipelineStage[3] $end
    $var wire 81 H! stage_wires[0] [80:0] $end
    $var wire 81 K! stage_wires[1] [80:0] $end
    $scope module RotStagePerPipe[0] $end
     $var wire 32 0" idx [31:0] $end
     $var wire 1 ," realityCheck $end
     $scope module rot_inst $end
      $var wire 32 '" MAXZ [31:0] $end
      $var wire 32 0" SHIFT [31:0] $end
      $var wire 1 ," DOES_EXIST $end
      $var wire 81 N! i_data [80:0] $end
      $var wire 1 E en_en $end
      $var wire 81 O o_data [80:0] $end
      $var wire 32 0" clamped_shift [31:0] $end
      $var wire 32 1" sh_val_mod [31:0] $end
      $var wire 1 -" o_o $end
     $upscope $end
    $upscope $end
   $upscope $end
   $scope module PipelineStage[4] $end
    $var wire 81 Q! stage_wires[0] [80:0] $end
    $var wire 81 T! stage_wires[1] [80:0] $end
    $scope module RotStagePerPipe[0] $end
     $var wire 32 /" idx [31:0] $end
     $var wire 1 ," realityCheck $end
     $scope module rot_inst $end
      $var wire 32 '" MAXZ [31:0] $end
      $var wire 32 /" SHIFT [31:0] $end
      $var wire 1 ," DOES_EXIST $end
      $var wire 81 W! i_data [80:0] $end
      $var wire 1 F en_en $end
      $var wire 81 R o_data [80:0] $end
      $var wire 32 /" clamped_shift [31:0] $end
      $var wire 32 2" sh_val_mod [31:0] $end
      $var wire 1 -" o_o $end
     $upscope $end
    $upscope $end
   $upscope $end
   $scope module PipelineStage[5] $end
    $var wire 81 Z! stage_wires[0] [80:0] $end
    $var wire 81 ]! stage_wires[1] [80:0] $end
    $scope module RotStagePerPipe[0] $end
     $var wire 32 3" idx [31:0] $end
     $var wire 1 ," realityCheck $end
     $scope module rot_inst $end
      $var wire 32 '" MAXZ [31:0] $end
      $var wire 32 3" SHIFT [31:0] $end
      $var wire 1 ," DOES_EXIST $end
      $var wire 81 `! i_data [80:0] $end
      $var wire 1 G en_en $end
      $var wire 81 U o_data [80:0] $end
      $var wire 32 3" clamped_shift [31:0] $end
      $var wire 32 4" sh_val_mod [31:0] $end
      $var wire 1 -" o_o $end
     $upscope $end
    $upscope $end
   $upscope $end
   $scope module PipelineStage[6] $end
    $var wire 81 c! stage_wires[0] [80:0] $end
    $var wire 81 f! stage_wires[1] [80:0] $end
    $scope module RotStagePerPipe[0] $end
     $var wire 32 5" idx [31:0] $end
     $var wire 1 ," realityCheck $end
     $scope module rot_inst $end
      $var wire 32 '" MAXZ [31:0] $end
      $var wire 32 5" SHIFT [31:0] $end
      $var wire 1 ," DOES_EXIST $end
      $var wire 81 i! i_data [80:0] $end
      $var wire 1 H en_en $end
      $var wire 81 X o_data [80:0] $end
      $var wire 32 5" clamped_shift [31:0] $end
      $var wire 32 6" sh_val_mod [31:0] $end
      $var wire 1 -" o_o $end
     $upscope $end
    $upscope $end
   $upscope $end
  $upscope $end
  $scope module dut2 $end
   $var wire 32 '" MAXZ [31:0] $end
   $var wire 1 &" CLK $end
   $var wire 1 # rst_n $end
   $var wire 81 $ in_data [80:0] $end
   $var wire 7 ' shift_val [6:0] $end
   $var wire 81 m out_data [80:0] $end
   $var wire 32 *" NumStages [31:0] $end
   $var wire 81 l! stage[0] [80:0] $end
   $var wire 81 o! stage[1] [80:0] $end
   $var wire 81 r! stage[2] [80:0] $end
   $var wire 81 u! stage[3] [80:0] $end
   $var wire 81 x! stage[4] [80:0] $end
   $var wire 81 {! stage[5] [80:0] $end
   $var wire 81 ~! stage[6] [80:0] $end
   $var wire 81 #" stage[7] [80:0] $end
   $scope module CircularShifterStage[0] $end
    $var wire 81 3! rotated [80:0] $end
   $upscope $end
   $scope module CircularShifterStage[1] $end
    $var wire 81 [ rotated [80:0] $end
   $upscope $end
   $scope module CircularShifterStage[2] $end
    $var wire 81 ^ rotated [80:0] $end
   $upscope $end
   $scope module CircularShifterStage[3] $end
    $var wire 81 a rotated [80:0] $end
   $upscope $end
   $scope module CircularShifterStage[4] $end
    $var wire 81 d rotated [80:0] $end
   $upscope $end
   $scope module CircularShifterStage[5] $end
    $var wire 81 g rotated [80:0] $end
   $upscope $end
   $scope module CircularShifterStage[6] $end
    $var wire 81 j rotated [80:0] $end
   $upscope $end
  $upscope $end
 $upscope $end
$enddefinitions $end


#0
0#
b000000000000000000000000000000000000000000000000000000000000000000000000000000000 $
b0000000 '
b001101111100100000001101101011101110101101100100010001000111110101001101000111110 (
b101111100100101000110000101111011101101111010010001101011010101010010110011101110 +
b001010011100100001001001011111010101000011000011100010110101001110100011010011001 .
b111010001011111001001100010011100100001000111111000100000010010011011001110010011 1
b101001110001101001111010010000110111101001011101100101001000011001110010101000111 4
b010010011010110000001111010100110101100011011001111100001100001110101111000100101 7
b00000000000000000000000000000000 :
b00000000000000000000000000000000 ;
b00000000000000000000000000000000 <
b00000000000000000000000000000000 =
b00000000000000000000000000000000 >
b000000000000000000000000000000000000000000000000000000000000000000000000000000000 ?
0B
0C
0D
0E
0F
0G
0H
b000000000000000000000000000000000000000000000000000000000000000000000000000000000 I
b000000000000000000000000000000000000000000000000000000000000000000000000000000000 L
b000000000000000000000000000000000000000000000000000000000000000000000000000000000 O
b000000000000000000000000000000000000000000000000000000000000000000000000000000000 R
b000000000000000000000000000000000000000000000000000000000000000000000000000000000 U
b000000000000000000000000000000000000000000000000000000000000000000000000000000000 X
b000000000000000000000000000000000000000000000000000000000000000000000000000000000 [
b000000000000000000000000000000000000000000000000000000000000000000000000000000000 ^
b000000000000000000000000000000000000000000000000000000000000000000000000000000000 a
b000000000000000000000000000000000000000000000000000000000000000000000000000000000 d
b000000000000000000000000000000000000000000000000000000000000000000000000000000000 g
b000000000000000000000000000000000000000000000000000000000000000000000000000000000 j
b000000000000000000000000000000000000000000000000000000000000000000000000000000000 m
b000000000000000000000000000000000000000000000000000000000000000000000000000000000 p
b000000000000000000000000000000000000000000000000000000000000000000000000000000000 s
b000000000000000000000000000000000000000000000000000000000000000000000000000000000 v
b000000000000000000000000000000000000000000000000000000000000000000000000000000000 y
b000000000000000000000000000000000000000000000000000000000000000000000000000000000 |
b000000000000000000000000000000000000000000000000000000000000000000000000000000000 !!
b000000000000000000000000000000000000000000000000000000000000000000000000000000000 $!
b000000000000000000000000000000000000000000000000000000000000000000000000000000000 '!
b000000000000000000000000000000000000000000000000000000000000000000000000000000000 *!
b000000000000000000000000000000000000000000000000000000000000000000000000000000000 -!
b000000000000000000000000000000000000000000000000000000000000000000000000000000000 0!
b000000000000000000000000000000000000000000000000000000000000000000000000000000000 3!
b000000000000000000000000000000000000000000000000000000000000000000000000000000000 6!
b000000000000000000000000000000000000000000000000000000000000000000000000000000000 9!
b000000000000000000000000000000000000000000000000000000000000000000000000000000000 <!
b000000000000000000000000000000000000000000000000000000000000000000000000000000000 ?!
b000000000000000000000000000000000000000000000000000000000000000000000000000000000 B!
b000000000000000000000000000000000000000000000000000000000000000000000000000000000 E!
b000000000000000000000000000000000000000000000000000000000000000000000000000000000 H!
b000000000000000000000000000000000000000000000000000000000000000000000000000000000 K!
b000000000000000000000000000000000000000000000000000000000000000000000000000000000 N!
b000000000000000000000000000000000000000000000000000000000000000000000000000000000 Q!
b000000000000000000000000000000000000000000000000000000000000000000000000000000000 T!
b000000000000000000000000000000000000000000000000000000000000000000000000000000000 W!
b000000000000000000000000000000000000000000000000000000000000000000000000000000000 Z!
b000000000000000000000000000000000000000000000000000000000000000000000000000000000 ]!
b000000000000000000000000000000000000000000000000000000000000000000000000000000000 `!
b000000000000000000000000000000000000000000000000000000000000000000000000000000000 c!
b000000000000000000000000000000000000000000000000000000000000000000000000000000000 f!
b000000000000000000000000000000000000000000000000000000000000000000000000000000000 i!
b000000000000000000000000000000000000000000000000000000000000000000000000000000000 l!
b000000000000000000000000000000000000000000000000000000000000000000000000000000000 o!
b000000000000000000000000000000000000000000000000000000000000000000000000000000000 r!
b000000000000000000000000000000000000000000000000000000000000000000000000000000000 u!
b000000000000000000000000000000000000000000000000000000000000000000000000000000000 x!
b000000000000000000000000000000000000000000000000000000000000000000000000000000000 {!
b000000000000000000000000000000000000000000000000000000000000000000000000000000000 ~!
b000000000000000000000000000000000000000000000000000000000000000000000000000000000 #"
0&"
b00000000000000000000000001010001 '"
b00000000000000000000000000001010 ("
b00000000000000000000000000000001 )"
b00000000000000000000000000000111 *"
b00000000000000000000000000000000 +"
1,"
0-"
b00000000000000000000000000000010 ."
b00000000000000000000000000000100 /"
b00000000000000000000000000000011 0"
b00000000000000000000000000001000 1"
b00000000000000000000000000010000 2"
b00000000000000000000000000000101 3"
b00000000000000000000000000100000 4"
b00000000000000000000000000000110 5"
b00000000000000000000000001000000 6"
#5000
1&"
#10000
0&"
#15000
1&"
#20000
0&"
#25000
1&"
#30000
0&"
#35000
1&"
#40000
0&"
#45000
1#
1&"
#50000
0&"
#55000
b001101111100100000001101101011101110101101100100010001000111110101001101000111110 $
b00000000000000000000000000001010 :
b001101111100100000001101101011101110101101100100010001000111110101001101000111110 I
b001101111100100000001101101011101110101101100100010001000111110101001101000111110 [
b001101111100100000001101101011101110101101100100010001000111110101001101000111110 s
b001101111100100000001101101011101110101101100100010001000111110101001101000111110 v
b001101111100100000001101101011101110101101100100010001000111110101001101000111110 -!
b001101111100100000001101101011101110101101100100010001000111110101001101000111110 0!
b001101111100100000001101101011101110101101100100010001000111110101001101000111110 3!
b001101111100100000001101101011101110101101100100010001000111110101001101000111110 6!
b001101111100100000001101101011101110101101100100010001000111110101001101000111110 9!
b001101111100100000001101101011101110101101100100010001000111110101001101000111110 <!
b001101111100100000001101101011101110101101100100010001000111110101001101000111110 l!
b001101111100100000001101101011101110101101100100010001000111110101001101000111110 o!
1&"
#60000
0&"
#65000
b001101111100100000001101101011101110101101100100010001000111110101001101000111110 L
b001101111100100000001101101011101110101101100100010001000111110101001101000111110 ^
b001101111100100000001101101011101110101101100100010001000111110101001101000111110 y
b001101111100100000001101101011101110101101100100010001000111110101001101000111110 ?!
b001101111100100000001101101011101110101101100100010001000111110101001101000111110 B!
b001101111100100000001101101011101110101101100100010001000111110101001101000111110 E!
b001101111100100000001101101011101110101101100100010001000111110101001101000111110 r!
1&"
#70000
0&"
#75000
b001101111100100000001101101011101110101101100100010001000111110101001101000111110 O
b001101111100100000001101101011101110101101100100010001000111110101001101000111110 a
b001101111100100000001101101011101110101101100100010001000111110101001101000111110 |
b001101111100100000001101101011101110101101100100010001000111110101001101000111110 H!
b001101111100100000001101101011101110101101100100010001000111110101001101000111110 K!
b001101111100100000001101101011101110101101100100010001000111110101001101000111110 N!
b001101111100100000001101101011101110101101100100010001000111110101001101000111110 u!
1&"
#80000
0&"
#85000
b001101111100100000001101101011101110101101100100010001000111110101001101000111110 R
b001101111100100000001101101011101110101101100100010001000111110101001101000111110 d
b001101111100100000001101101011101110101101100100010001000111110101001101000111110 !!
b001101111100100000001101101011101110101101100100010001000111110101001101000111110 Q!
b001101111100100000001101101011101110101101100100010001000111110101001101000111110 T!
b001101111100100000001101101011101110101101100100010001000111110101001101000111110 W!
b001101111100100000001101101011101110101101100100010001000111110101001101000111110 x!
1&"
#90000
0&"
#95000
b001101111100100000001101101011101110101101100100010001000111110101001101000111110 U
b001101111100100000001101101011101110101101100100010001000111110101001101000111110 g
b001101111100100000001101101011101110101101100100010001000111110101001101000111110 $!
b001101111100100000001101101011101110101101100100010001000111110101001101000111110 Z!
b001101111100100000001101101011101110101101100100010001000111110101001101000111110 ]!
b001101111100100000001101101011101110101101100100010001000111110101001101000111110 `!
b001101111100100000001101101011101110101101100100010001000111110101001101000111110 {!
1&"
#100000
0&"
#105000
b001101111100100000001101101011101110101101100100010001000111110101001101000111110 X
b001101111100100000001101101011101110101101100100010001000111110101001101000111110 j
b001101111100100000001101101011101110101101100100010001000111110101001101000111110 '!
b001101111100100000001101101011101110101101100100010001000111110101001101000111110 c!
b001101111100100000001101101011101110101101100100010001000111110101001101000111110 f!
b001101111100100000001101101011101110101101100100010001000111110101001101000111110 i!
b001101111100100000001101101011101110101101100100010001000111110101001101000111110 ~!
1&"
#110000
0&"
#115000
b001101111100100000001101101011101110101101100100010001000111110101001101000111110 m
b001101111100100000001101101011101110101101100100010001000111110101001101000111110 p
b001101111100100000001101101011101110101101100100010001000111110101001101000111110 *!
b001101111100100000001101101011101110101101100100010001000111110101001101000111110 #"
1&"
#120000
0&"
#125000
1&"
#130000
0&"
#135000
1&"
#140000
0&"
#145000
1&"
#150000
0&"
#155000
b0000001 '
b00000000000000000000000000000001 ;
b00000000000000000000000000000001 >
b001101111100100000001101101011101110101101100100010001000111110101001101000111110 ?
1B
b000110111110010000000110110101110111010110110010001000100011111010100110100011111 I
b000110111110010000000110110101110111010110110010001000100011111010100110100011111 [
b000110111110010000000110110101110111010110110010001000100011111010100110100011111 v
b000110111110010000000110110101110111010110110010001000100011111010100110100011111 0!
b000110111110010000000110110101110111010110110010001000100011111010100110100011111 3!
b000110111110010000000110110101110111010110110010001000100011111010100110100011111 6!
b000110111110010000000110110101110111010110110010001000100011111010100110100011111 9!
b000110111110010000000110110101110111010110110010001000100011111010100110100011111 <!
b000110111110010000000110110101110111010110110010001000100011111010100110100011111 o!
1&"
#160000
0&"
#165000
b000110111110010000000110110101110111010110110010001000100011111010100110100011111 L
b000110111110010000000110110101110111010110110010001000100011111010100110100011111 ^
b000110111110010000000110110101110111010110110010001000100011111010100110100011111 y
b000110111110010000000110110101110111010110110010001000100011111010100110100011111 ?!
b000110111110010000000110110101110111010110110010001000100011111010100110100011111 B!
b000110111110010000000110110101110111010110110010001000100011111010100110100011111 E!
b000110111110010000000110110101110111010110110010001000100011111010100110100011111 r!
1&"
#170000
0&"
#175000
b000110111110010000000110110101110111010110110010001000100011111010100110100011111 O
b000110111110010000000110110101110111010110110010001000100011111010100110100011111 a
b000110111110010000000110110101110111010110110010001000100011111010100110100011111 |
b000110111110010000000110110101110111010110110010001000100011111010100110100011111 H!
b000110111110010000000110110101110111010110110010001000100011111010100110100011111 K!
b000110111110010000000110110101110111010110110010001000100011111010100110100011111 N!
b000110111110010000000110110101110111010110110010001000100011111010100110100011111 u!
1&"
#180000
0&"
#185000
b000110111110010000000110110101110111010110110010001000100011111010100110100011111 R
b000110111110010000000110110101110111010110110010001000100011111010100110100011111 d
b000110111110010000000110110101110111010110110010001000100011111010100110100011111 !!
b000110111110010000000110110101110111010110110010001000100011111010100110100011111 Q!
b000110111110010000000110110101110111010110110010001000100011111010100110100011111 T!
b000110111110010000000110110101110111010110110010001000100011111010100110100011111 W!
b000110111110010000000110110101110111010110110010001000100011111010100110100011111 x!
1&"
#190000
0&"
#195000
b000110111110010000000110110101110111010110110010001000100011111010100110100011111 U
b000110111110010000000110110101110111010110110010001000100011111010100110100011111 g
b000110111110010000000110110101110111010110110010001000100011111010100110100011111 $!
b000110111110010000000110110101110111010110110010001000100011111010100110100011111 Z!
b000110111110010000000110110101110111010110110010001000100011111010100110100011111 ]!
b000110111110010000000110110101110111010110110010001000100011111010100110100011111 `!
b000110111110010000000110110101110111010110110010001000100011111010100110100011111 {!
1&"
#200000
0&"
#205000
b000110111110010000000110110101110111010110110010001000100011111010100110100011111 X
b000110111110010000000110110101110111010110110010001000100011111010100110100011111 j
b000110111110010000000110110101110111010110110010001000100011111010100110100011111 '!
b000110111110010000000110110101110111010110110010001000100011111010100110100011111 c!
b000110111110010000000110110101110111010110110010001000100011111010100110100011111 f!
b000110111110010000000110110101110111010110110010001000100011111010100110100011111 i!
b000110111110010000000110110101110111010110110010001000100011111010100110100011111 ~!
1&"
#210000
0&"
#215000
b000110111110010000000110110101110111010110110010001000100011111010100110100011111 m
b000110111110010000000110110101110111010110110010001000100011111010100110100011111 p
b000110111110010000000110110101110111010110110010001000100011111010100110100011111 *!
b000110111110010000000110110101110111010110110010001000100011111010100110100011111 #"
1&"
#220000
0&"
#225000
1&"
#230000
0&"
#235000
1&"
#240000
0&"
#245000
1&"
#250000
0&"
#255000
b0000010 '
b00000000000000000000000000000010 ;
b00000000000000000000000000000010 >
b000110111110010000000110110101110111010110110010001000100011111010100110100011111 ?
0B
1C
b100011011111001000000011011010111011101011011001000100010001111101010011010001111 I
b110001101111100100000001101101011101110101101100100010001000111110101001101000111 L
b100011011111001000000011011010111011101011011001000100010001111101010011010001111 [
b110001101111100100000001101101011101110101101100100010001000111110101001101000111 ^
b001101111100100000001101101011101110101101100100010001000111110101001101000111110 v
b110001101111100100000001101101011101110101101100100010001000111110101001101000111 y
b001101111100100000001101101011101110101101100100010001000111110101001101000111110 0!
b001101111100100000001101101011101110101101100100010001000111110101001101000111110 3!
b001101111100100000001101101011101110101101100100010001000111110101001101000111110 6!
b100011011111001000000011011010111011101011011001000100010001111101010011010001111 9!
b001101111100100000001101101011101110101101100100010001000111110101001101000111110 <!
b110001101111100100000001101101011101110101101100100010001000111110101001101000111 ?!
b110001101111100100000001101101011101110101101100100010001000111110101001101000111 B!
b110001101111100100000001101101011101110101101100100010001000111110101001101000111 E!
b001101111100100000001101101011101110101101100100010001000111110101001101000111110 o!
b110001101111100100000001101101011101110101101100100010001000111110101001101000111 r!
1&"
#260000
0&"
#265000
b100011011111001000000011011010111011101011011001000100010001111101010011010001111 L
b110001101111100100000001101101011101110101101100100010001000111110101001101000111 O
b100011011111001000000011011010111011101011011001000100010001111101010011010001111 ^
b110001101111100100000001101101011101110101101100100010001000111110101001101000111 a
b100011011111001000000011011010111011101011011001000100010001111101010011010001111 y
b110001101111100100000001101101011101110101101100100010001000111110101001101000111 |
b100011011111001000000011011010111011101011011001000100010001111101010011010001111 ?!
b100011011111001000000011011010111011101011011001000100010001111101010011010001111 B!
b100011011111001000000011011010111011101011011001000100010001111101010011010001111 E!
b110001101111100100000001101101011101110101101100100010001000111110101001101000111 H!
b110001101111100100000001101101011101110101101100100010001000111110101001101000111 K!
b110001101111100100000001101101011101110101101100100010001000111110101001101000111 N!
b100011011111001000000011011010111011101011011001000100010001111101010011010001111 r!
b110001101111100100000001101101011101110101101100100010001000111110101001101000111 u!
1&"
#270000
0&"
#275000
b100011011111001000000011011010111011101011011001000100010001111101010011010001111 O
b110001101111100100000001101101011101110101101100100010001000111110101001101000111 R
b100011011111001000000011011010111011101011011001000100010001111101010011010001111 a
b110001101111100100000001101101011101110101101100100010001000111110101001101000111 d
b100011011111001000000011011010111011101011011001000100010001111101010011010001111 |
b110001101111100100000001101101011101110101101100100010001000111110101001101000111 !!
b100011011111001000000011011010111011101011011001000100010001111101010011010001111 H!
b100011011111001000000011011010111011101011011001000100010001111101010011010001111 K!
b100011011111001000000011011010111011101011011001000100010001111101010011010001111 N!
b110001101111100100000001101101011101110101101100100010001000111110101001101000111 Q!
b110001101111100100000001101101011101110101101100100010001000111110101001101000111 T!
b110001101111100100000001101101011101110101101100100010001000111110101001101000111 W!
b100011011111001000000011011010111011101011011001000100010001111101010011010001111 u!
b110001101111100100000001101101011101110101101100100010001000111110101001101000111 x!
1&"
#280000
0&"
#285000
b100011011111001000000011011010111011101011011001000100010001111101010011010001111 R
b110001101111100100000001101101011101110101101100100010001000111110101001101000111 U
b100011011111001000000011011010111011101011011001000100010001111101010011010001111 d
b110001101111100100000001101101011101110101101100100010001000111110101001101000111 g
b100011011111001000000011011010111011101011011001000100010001111101010011010001111 !!
b110001101111100100000001101101011101110101101100100010001000111110101001101000111 $!
b100011011111001000000011011010111011101011011001000100010001111101010011010001111 Q!
b100011011111001000000011011010111011101011011001000100010001111101010011010001111 T!
b100011011111001000000011011010111011101011011001000100010001111101010011010001111 W!
b110001101111100100000001101101011101110101101100100010001000111110101001101000111 Z!
b110001101111100100000001101101011101110101101100100010001000111110101001101000111 ]!
b110001101111100100000001101101011101110101101100100010001000111110101001101000111 `!
b100011011111001000000011011010111011101011011001000100010001111101010011010001111 x!
b110001101111100100000001101101011101110101101100100010001000111110101001101000111 {!
1&"
#290000
0&"
#295000
b100011011111001000000011011010111011101011011001000100010001111101010011010001111 U
b110001101111100100000001101101011101110101101100100010001000111110101001101000111 X
b100011011111001000000011011010111011101011011001000100010001111101010011010001111 g
b110001101111100100000001101101011101110101101100100010001000111110101001101000111 j
b100011011111001000000011011010111011101011011001000100010001111101010011010001111 $!
b110001101111100100000001101101011101110101101100100010001000111110101001101000111 '!
b100011011111001000000011011010111011101011011001000100010001111101010011010001111 Z!
b100011011111001000000011011010111011101011011001000100010001111101010011010001111 ]!
b100011011111001000000011011010111011101011011001000100010001111101010011010001111 `!
b110001101111100100000001101101011101110101101100100010001000111110101001101000111 c!
b110001101111100100000001101101011101110101101100100010001000111110101001101000111 f!
b110001101111100100000001101101011101110101101100100010001000111110101001101000111 i!
b100011011111001000000011011010111011101011011001000100010001111101010011010001111 {!
b110001101111100100000001101101011101110101101100100010001000111110101001101000111 ~!
1&"
#300000
0&"
#305000
b100011011111001000000011011010111011101011011001000100010001111101010011010001111 X
b100011011111001000000011011010111011101011011001000100010001111101010011010001111 j
b110001101111100100000001101101011101110101101100100010001000111110101001101000111 m
b110001101111100100000001101101011101110101101100100010001000111110101001101000111 p
b100011011111001000000011011010111011101011011001000100010001111101010011010001111 '!
b110001101111100100000001101101011101110101101100100010001000111110101001101000111 *!
b100011011111001000000011011010111011101011011001000100010001111101010011010001111 c!
b100011011111001000000011011010111011101011011001000100010001111101010011010001111 f!
b100011011111001000000011011010111011101011011001000100010001111101010011010001111 i!
b100011011111001000000011011010111011101011011001000100010001111101010011010001111 ~!
b110001101111100100000001101101011101110101101100100010001000111110101001101000111 #"
1&"
#310000
0&"
#315000
b100011011111001000000011011010111011101011011001000100010001111101010011010001111 m
b100011011111001000000011011010111011101011011001000100010001111101010011010001111 p
b100011011111001000000011011010111011101011011001000100010001111101010011010001111 *!
b100011011111001000000011011010111011101011011001000100010001111101010011010001111 #"
1&"
#320000
0&"
#325000
1&"
#330000
0&"
#335000
1&"
#340000
0&"
#345000
1&"
#350000
0&"
#355000
b0000011 '
b00000000000000000000000000000011 ;
b00000000000000000000000000000011 >
b100011011111001000000011011010111011101011011001000100010001111101010011010001111 ?
1B
b110001101111100100000001101101011101110101101100100010001000111110101001101000111 I
b110001101111100100000001101101011101110101101100100010001000111110101001101000111 [
b000110111110010000000110110101110111010110110010001000100011111010100110100011111 v
b000110111110010000000110110101110111010110110010001000100011111010100110100011111 0!
b000110111110010000000110110101110111010110110010001000100011111010100110100011111 3!
b000110111110010000000110110101110111010110110010001000100011111010100110100011111 6!
b110001101111100100000001101101011101110101101100100010001000111110101001101000111 9!
b000110111110010000000110110101110111010110110010001000100011111010100110100011111 <!
b000110111110010000000110110101110111010110110010001000100011111010100110100011111 o!
1&"
#360000
0&"
#365000
b110001101111100100000001101101011101110101101100100010001000111110101001101000111 L
b110001101111100100000001101101011101110101101100100010001000111110101001101000111 ^
b110001101111100100000001101101011101110101101100100010001000111110101001101000111 y
b110001101111100100000001101101011101110101101100100010001000111110101001101000111 ?!
b110001101111100100000001101101011101110101101100100010001000111110101001101000111 B!
b110001101111100100000001101101011101110101101100100010001000111110101001101000111 E!
b110001101111100100000001101101011101110101101100100010001000111110101001101000111 r!
1&"
#370000
0&"
#375000
b110001101111100100000001101101011101110101101100100010001000111110101001101000111 O
b110001101111100100000001101101011101110101101100100010001000111110101001101000111 a
b110001101111100100000001101101011101110101101100100010001000111110101001101000111 |
b110001101111100100000001101101011101110101101100100010001000111110101001101000111 H!
b110001101111100100000001101101011101110101101100100010001000111110101001101000111 K!
b110001101111100100000001101101011101110101101100100010001000111110101001101000111 N!
b110001101111100100000001101101011101110101101100100010001000111110101001101000111 u!
1&"
#380000
0&"
#385000
b110001101111100100000001101101011101110101101100100010001000111110101001101000111 R
b110001101111100100000001101101011101110101101100100010001000111110101001101000111 d
b110001101111100100000001101101011101110101101100100010001000111110101001101000111 !!
b110001101111100100000001101101011101110101101100100010001000111110101001101000111 Q!
b110001101111100100000001101101011101110101101100100010001000111110101001101000111 T!
b110001101111100100000001101101011101110101101100100010001000111110101001101000111 W!
b110001101111100100000001101101011101110101101100100010001000111110101001101000111 x!
1&"
#390000
0&"
#395000
b110001101111100100000001101101011101110101101100100010001000111110101001101000111 U
b110001101111100100000001101101011101110101101100100010001000111110101001101000111 g
b110001101111100100000001101101011101110101101100100010001000111110101001101000111 $!
b110001101111100100000001101101011101110101101100100010001000111110101001101000111 Z!
b110001101111100100000001101101011101110101101100100010001000111110101001101000111 ]!
b110001101111100100000001101101011101110101101100100010001000111110101001101000111 `!
b110001101111100100000001101101011101110101101100100010001000111110101001101000111 {!
1&"
#400000
0&"
#405000
b110001101111100100000001101101011101110101101100100010001000111110101001101000111 X
b110001101111100100000001101101011101110101101100100010001000111110101001101000111 j
b110001101111100100000001101101011101110101101100100010001000111110101001101000111 '!
b110001101111100100000001101101011101110101101100100010001000111110101001101000111 c!
b110001101111100100000001101101011101110101101100100010001000111110101001101000111 f!
b110001101111100100000001101101011101110101101100100010001000111110101001101000111 i!
b110001101111100100000001101101011101110101101100100010001000111110101001101000111 ~!
1&"
#410000
0&"
#415000
b110001101111100100000001101101011101110101101100100010001000111110101001101000111 m
b110001101111100100000001101101011101110101101100100010001000111110101001101000111 p
b110001101111100100000001101101011101110101101100100010001000111110101001101000111 *!
b110001101111100100000001101101011101110101101100100010001000111110101001101000111 #"
1&"
#420000
0&"
#425000
1&"
#430000
0&"
#435000
1&"
#440000
0&"
#445000
1&"
#450000
0&"
